Association between cholesterol ration and health indicators
…
skimr::skim_with(numeric = list(hist = NULL),
                 integer = list(hist = NULL))

2.2 Load the raw data into R

Here I load the raw data into R, and convert character variables to factors.

RChealthdata <- read_csv("RChealthdata2.csv") %>% 
  mutate_if(is.character, as.factor) %>%
  tbl_df
RChealthdata

# A tibble: 211,833 x 25
      id   Age `Gender(1, male  site `height(cm)` `weight(kg)`   bmi   sbp
   <int> <int>            <int> <int>        <dbl>        <dbl> <dbl> <int>
 1     1    43                2    16         166.         53.5  19.3    96
 2     2    34                1     2         169          57    20     124
 3     3    32                2     2         157          51    20.7    98
 4    11    59                1     2         165          63    23.1   136
 5    14    30                2     9         164.         48.5  18.1   107
 6    19    41                2     5         157          57.9  23.5   119
 7    25    51                2    14         170          61.8  21.4   123
 8    26    36                1    14         166          66.7  24.2   111
 9    27    31                1     7         167          61.5  22.1   130
10    34    31                1     3         162.         58.5  22.4   104
# ... with 211,823 more rows, and 17 more variables: dbp <int>, fpg <dbl>,
#   cholesterol <dbl>, `Triglyceride(mmol/L)` <dbl>, HDL <dbl>, LDL <dbl>,
#   `ALT(U/L)` <dbl>, `AST(U/L)` <dbl>, `BUN(mmol/L)` <dbl>,
#   `CCR(umol/L)` <dbl>, fpg2 <dbl>, `Diabetes diagnosed during
#   followup_1,Yes_` <int>, diabetes <int>, `year of followup` <dbl>,
#   smoking_status <int>, drinking_status <int>, family_histroy <int>

3 Building a Tidy Data Set

3.1 Select variables that will be included in the new dataset

I select these 9 variables in my study. For predictors, I use Age,bmi, sbp, dbp, fpg2, smoking_status, drinking_status. For outcome, I will use cholesterol and HDL to calculate the outcome in my study.

RCdata <- select(RChealthdata, id, Age, bmi, sbp, dbp, fpg2, 
                 cholesterol, HDL, smoking_status, drinking_status)
RCdata

# A tibble: 211,833 x 10
      id   Age   bmi   sbp   dbp  fpg2 cholesterol   HDL smoking_status
   <int> <int> <dbl> <int> <int> <dbl>       <dbl> <dbl>          <int>
 1     1    43  19.3    96    57  4.97        5.13 NA                 3
 2     2    34  20     124    69  5.5         4.61  1.09             NA
 3     3    32  20.7    98    68  4.9         4.73 NA                NA
 4    11    59  23.1   136    73  5.5         4.5   1.53              3
 5    14    30  18.1   107    76  4.82        3.48  1.55             NA
 6    19    41  23.5   119    83  5           3.7  NA                NA
 7    25    51  21.4   123    66  4.8         4.77 NA                NA
 8    26    36  24.2   111    67  5.32        4.75  1.2              NA
 9    27    31  22.1   130    61  4.8         3.93  1.26             NA
10    34    31  22.4   104    74  5.1         4.48 NA                 3
# ... with 211,823 more rows, and 1 more variable: drinking_status <int>

3.2 Calculating the cho_ratio outcome

The cho_ratio outcome is measured by dividing the total cholesterol by the HDL.

RCdata <- RCdata %>%
  mutate(HDL_rc=ifelse(HDL==0,NA,HDL),
         cho_ratio = cholesterol/HDL_rc)

RCdata

# A tibble: 211,833 x 12
      id   Age   bmi   sbp   dbp  fpg2 cholesterol   HDL smoking_status
   <int> <int> <dbl> <int> <int> <dbl>       <dbl> <dbl>          <int>
 1     1    43  19.3    96    57  4.97        5.13 NA                 3
 2     2    34  20     124    69  5.5         4.61  1.09             NA
 3     3    32  20.7    98    68  4.9         4.73 NA                NA
 4    11    59  23.1   136    73  5.5         4.5   1.53              3
 5    14    30  18.1   107    76  4.82        3.48  1.55             NA
 6    19    41  23.5   119    83  5           3.7  NA                NA
 7    25    51  21.4   123    66  4.8         4.77 NA                NA
 8    26    36  24.2   111    67  5.32        4.75  1.2              NA
 9    27    31  22.1   130    61  4.8         3.93  1.26             NA
10    34    31  22.4   104    74  5.1         4.48 NA                 3
# ... with 211,823 more rows, and 3 more variables: drinking_status <int>,
#   HDL_rc <dbl>, cho_ratio <dbl>
…
RCdata <-RCdata %>%
mutate(smoke_sta = fct_recode(smoking_status, 
                        "current"  = "1",  
                        "past" = "2",
                        "never" = "3"))
RCdata <- RCdata %>%
mutate(drink_sta = fct_recode(drinking_status,
                             "current"  = "1",  
                        "past" = "2",
                        "never" = "3" ))
RCdata

# A tibble: 211,833 x 14
      id   Age   bmi   sbp   dbp  fpg2 cholesterol   HDL smoking_status
   <int> <int> <dbl> <int> <int> <dbl>       <dbl> <dbl> <fct>         
 1     1    43  19.3    96    57  4.97        5.13 NA    3             
 2     2    34  20     124    69  5.5         4.61  1.09 <NA>          
 3     3    32  20.7    98    68  4.9         4.73 NA    <NA>          
 4    11    59  23.1   136    73  5.5         4.5   1.53 3             
 5    14    30  18.1   107    76  4.82        3.48  1.55 <NA>          
 6    19    41  23.5   119    83  5           3.7  NA    <NA>          
 7    25    51  21.4   123    66  4.8         4.77 NA    <NA>          
 8    26    36  24.2   111    67  5.32        4.75  1.2  <NA>          
 9    27    31  22.1   130    61  4.8         3.93  1.26 <NA>          
10    34    31  22.4   104    74  5.1         4.48 NA    3             
# ... with 211,823 more rows, and 5 more variables: drinking_status <fct>,
#   HDL_rc <dbl>, cho_ratio <dbl>, smoke_sta <fct>, drink_sta <fct>
…
3.5 Filter people that are younger than 60 years old

I exclude people that are over 60 years old because older population usually have higher cholesterol levels comparing to other age groups. Include those older people may affect the model, so I exclude them.

RCdata <- RCdata %>%
  filter(Age < 60)
RCdata

# A tibble: 187,029 x 14
      id   Age   bmi   sbp   dbp  fpg2 cholesterol   HDL smoking_status
   <int> <int> <dbl> <int> <int> <dbl>       <dbl> <dbl> <fct>         
 1     1    43  19.3    96    57  4.97        5.13 NA    3             
 2     2    34  20     124    69  5.5         4.61  1.09 <NA>          
 3     3    32  20.7    98    68  4.9         4.73 NA    <NA>          
 4    11    59  23.1   136    73  5.5         4.5   1.53 3             
 5    14    30  18.1   107    76  4.82        3.48  1.55 <NA>          
 6    19    41  23.5   119    83  5           3.7  NA    <NA>          
 7    25    51  21.4   123    66  4.8         4.77 NA    <NA>          
 8    26    36  24.2   111    67  5.32        4.75  1.2  <NA>          
 9    27    31  22.1   130    61  4.8         3.93  1.26 <NA>          
10    34    31  22.4   104    74  5.1         4.48 NA    3             
# ... with 187,019 more rows, and 5 more variables: drinking_status <fct>,
#   HDL_rc <dbl>, cho_ratio <dbl>, smoke_sta <fct>, drink_sta <fct>

3.6 Dealing with missing outcomes

I delete all rows that contain missing values for the outcome cho_ratio.

RCdata2 <- drop_na(RCdata, cho_ratio)
RCdata2

# A tibble: 100,229 x 14
      id   Age   bmi   sbp   dbp  fpg2 cholesterol   HDL smoking_status
   <int> <int> <dbl> <int> <int> <dbl>       <dbl> <dbl> <fct>         
 1     2    34  20     124    69  5.5         4.61  1.09 <NA>          
 2    11    59  23.1   136    73  5.5         4.5   1.53 3             
 3    14    30  18.1   107    76  4.82        3.48  1.55 <NA>          
 4    26    36  24.2   111    67  5.32        4.75  1.2  <NA>          
 5    27    31  22.1   130    61  4.8         3.93  1.26 <NA>          
 6    44    52  20.3   110    67  4.75        5.19  1.28 <NA>          
 7    46    36  22.2    93    61  4.7         4.89  1.62 <NA>          
 8    54    35  27.2   119    78  4.5         5.18  1.54 <NA>          
 9    57    59  23.8   119    74  5.4         4.1   1.15 <NA>          
10    60    36  23.3   108    71  4.7         4.93  1.37 <NA>          
# ... with 100,219 more rows, and 5 more variables: drinking_status <fct>,
#   HDL_rc <dbl>, cho_ratio <dbl>, smoke_sta <fct>, drink_sta <fct>
…
Since the previous id is not continuous, so here I create a new sub_id to indicate each subject.

RCdata2 <- RCdata2 %>%
  tibble::rownames_to_column("sub_id")

3.8 My new tidy data set

Again I include those variables and make a final tidy data set for the future analysis. And I save the csv file into my computer.

Study2_RCdata <- select(RCdata2, id, sub_id, cho_ratio, bmi, sbp, dbp, fpg2, 
                 smoke_sta, drink_sta)
Study2_RCdata

# A tibble: 100,229 x 9
      id sub_id cho_ratio   bmi   sbp   dbp  fpg2 smoke_sta drink_sta
   <int> <chr>      <dbl> <dbl> <int> <int> <dbl> <fct>     <fct>    
 1     2 1           4.23  20     124    69  5.5  <NA>      <NA>     
 2    11 2           2.94  23.1   136    73  5.5  never     never    
 3    14 3           2.25  18.1   107    76  4.82 <NA>      <NA>     
 4    26 4           3.96  24.2   111    67  5.32 <NA>      <NA>     
 5    27 5           3.12  22.1   130    61  4.8  <NA>      <NA>     
 6    44 6           4.05  20.3   110    67  4.75 <NA>      <NA>     
 7    46 7           3.02  22.2    93    61  4.7  <NA>      <NA>     
 8    54 8           3.36  27.2   119    78  4.5  <NA>      <NA>     
 9    57 9           3.57  23.8   119    74  5.4  <NA>      <NA>     
10    60 10          3.60  23.3   108    71  4.7  <NA>      <NA>     
# ... with 100,219 more rows
…
The residual standard error is 0.23, so 95% of the prediction errors should be between -0.46 and 0.46, and all residuals should be between -0.69 and 0.69.

The F test p value is very small, indicate that there is significant amour of predictive value can be accounted for the model.

glance(rc_ksink)

# A tibble: 1 x 11
  r.squared adj.r.squared sigma statistic   p.value    df logLik   AIC
*     <dbl>         <dbl> <dbl>     <dbl>     <dbl> <int>  <dbl> <dbl>
1     0.207         0.205 0.231      149. 2.27e-195     8   182. -346.
# ... with 3 more variables: BIC <dbl>, deviance <dbl>, df.residual <int>

augment(rc_ksink)

# A tibble: 4,000 x 13
   log.cho_ratio.   bmi   dbp  fpg2 smoke_sta drink_sta .fitted .se.fit
 *          <dbl> <dbl> <int> <dbl> <fct>     <fct>       <dbl>   <dbl>
 1          1.30   20.4    69  5    never     never        1.16 0.00536
 2          1.56   22.1    71  5    never     never        1.22 0.00462
 3          0.993  17.7    69  4.63 never     never        1.08 0.00767
 4          0.953  19.4    65  5.11 never     never        1.13 0.00641
 5          1.01   20.2    71  5.12 never     never        1.16 0.00549
 6          0.857  21.1    64  4.65 never     never        1.17 0.00612
 7          0.884  19.4    51  5.36 never     never        1.12 0.00992
 8          1.21   22.6    70  5.42 never     never        1.24 0.00510
 9          1.31   23.8    95  5.28 current   never        1.42 0.0113 
10          1.37   26.6    83  5.54 past      never        1.44 0.0180 
# ... with 3,990 more rows, and 5 more variables: .resid <dbl>,
#   .hat <dbl>, .sigma <dbl>, .cooksd <dbl>, .std.resid <dbl>
…
test_small <- augment(rc_small, newdata = rc_test) %>% 
  mutate(modelname = "samller model", 
         .resid = cho_ratio - exp(.fitted),
         .expfit = exp(.fitted)) %>%
  select(sub_id, modelname, cho_ratio, .fitted, .resid, 
        bmi, smoke_sta,
         everything())

test_both <- union(test_ksink, test_small) %>%
  arrange(sub_id, modelname)

test_both

# A tibble: 4,000 x 14
   sub_id modelname cho_ratio .fitted  .resid   bmi   dbp  fpg2 smoke_sta
   <chr>  <chr>         <dbl>   <dbl>   <dbl> <dbl> <int> <dbl> <fct>    
 1 100028 kitchen       3.33    1.36 -0.560   27      72  5.2  never    
 2 100028 samller       3.33    1.36 -0.574   27      72  5.2  never    
 3 100059 kitchen       3.44    1.23  0.0121  20.7    61  4.89 current  
 4 100059 samller       3.44    1.28 -0.162   20.7    61  4.89 current  
 5 100104 kitchen       4.71    1.31  1.000   24.1    89  5.4  never    
 6 100104 samller       4.71    1.28  1.13    24.1    89  5.4  never    
 7 100186 kitchen       3.03    1.13 -0.0609  19.6    62  4.98 never    
 8 100186 samller       3.03    1.14 -0.0910  19.6    62  4.98 never    
 9 100229 kitchen       5.02    1.49  0.567   27.7    68  7.21 current  
10 100229 samller       5.02    1.49  0.573   27.7    68  7.21 current  
# ... with 3,990 more rows, and 5 more variables: drink_sta <fct>,
#   id <int>, sbp <int>, .se.fit <dbl>, .expfit <dbl>
…
